[
    {
      "id": 1,
      "name": "แอปเปิ้ล",
      "url": "https://res.cloudinary.com/dk0z4ums3/image/upload/v1503024666/attached_image_th/แอปเปิ้ล-กินดีมีประโยชน-pobpad.jpg"
    },
    {
      "id": 2,
      "name": "แตงโม",
      "url": "https://medthai.com/wp-content/uploads/2013/07/%E0%B8%A3%E0%B8%B9%E0%B8%9B%E0%B9%81%E0%B8%95%E0%B8%87%E0%B9%82%E0%B8%A1.jpg"
    },
    {
      "id": 3,
      "name": "ทุเรียน",
      "url": "https://www.shopat24.com/blog/wp-content/uploads/2020/05/Durian-1.jpg"
    }
  ]